…
#> Downloading historical prices for ISONE...
#> Finished downloading for ISONE in 0 minutes
#> Downloading historical prices for NYISO...
#> Finished downloading for NYISO in 0 minutes
#> Downloading historical prices for PJM...
#> Finished downloading for PJM in 0 minutes
#> Downloading historical prices for MISO...
#> Finished downloading for MISO in 0.1 minutes
#> Downloading historical prices for SPP...
#> Finished downloading for SPP in 0 minutes
#> Downloading historical prices for ERCOT...
#> Finished downloading for ERCOT in 0 minutes
#> Downloading historical prices for CAISO...
#> Finished downloading for CAISO in 0 minutes
#> # A tibble: 72 × 17
#>    interval_start_local interval_end_local  market   day  year month  hour ISONE
#>    <dttm>               <dttm>              <chr>  <int> <dbl> <dbl> <dbl> <dbl>
#>  1 2025-01-01 00:00:00  2025-01-01 01:00:00 DAY_A…     1  2025     1     1  37.2
#>  2 2025-01-01 01:00:00  2025-01-01 02:00:00 DAY_A…     1  2025     1     2  35.1
#>  3 2025-01-01 02:00:00  2025-01-01 03:00:00 DAY_A…     1  2025     1     3  31.6
#>  4 2025-01-01 03:00:00  2025-01-01 04:00:00 DAY_A…     1  2025     1     4  30.0
#>  5 2025-01-01 04:00:00  2025-01-01 05:00:00 DAY_A…     1  2025     1     5  28.5
#>  6 2025-01-01 05:00:00  2025-01-01 06:00:00 DAY_A…     1  2025     1     6  29.2
#>  7 2025-01-01 06:00:00  2025-01-01 07:00:00 DAY_A…     1  2025     1     7  29.6
#>  8 2025-01-01 07:00:00  2025-01-01 08:00:00 DAY_A…     1  2025     1     8  30.1
#>  9 2025-01-01 08:00:00  2025-01-01 09:00:00 DAY_A…     1  2025     1     9  30.8
#> 10 2025-01-01 09:00:00  2025-01-01 10:00:00 DAY_A…     1  2025     1    10  33.5
#> # ℹ 62 more rows
#> # ℹ 9 more variables: .Z.NEMASSBOST <dbl>, NYISO <dbl>, N.Y.C. <dbl>,
#> #   PJM <dbl>, MISO <dbl>, SPPNORTH_HUB <dbl>, SPPSOUTH_HUB <dbl>, ERCOT <dbl>,
#> #   CAISO <dbl>
```
…
